Introduction to cluefish • cluefish
…
To help determine if the size limits are suitable, the following code
lists all terms associated with deregulated genes in descending order by
size, giving insight into the generality of terms and guiding any needed
adjustments:

clustr_enrichres$dr_g_a_whole |> 
  dplyr::group_by(term_name) |> 
  dplyr::summarise(count = dplyr::n()) |> 
  dplyr::arrange(desc(count)) |> 
  print(n = 10) # Number of rows to print, adjustable based on the study
#> # A tibble: 3,646 × 2
#>    term_name                           count
#>    <chr>                               <int>
#>  1 biological_process                   1509
#>  2 cellular process                     1299
#>  3 metabolic process                     903
#>  4 organic substance metabolic process   855
#>  5 primary metabolic process             832
#>  6 nitrogen compound metabolic process   776
#>  7 cellular metabolic process            771
#>  8 macromolecule metabolic process       718
#>  9 KEGG root term                        707
#> 10 biological regulation                 556
#> # ℹ 3,636 more rows
…
